<?xml version="1.0" encoding="UTF-8" standalone="no"?>
<svg xmlns="http://www.w3.org/2000/svg" width="300" height="85">
  <path style="fill:#413625;fill-opacity:1;fill-rule:nonzero;stroke:#413625;stroke-width:0.93557227;stroke-miterlimit:4;stroke-opacity:1;stroke-dasharray:none;display:inline" d="m 228.97843,84.46176 c -0.57746,-0.0489 -2.4148,-0.20336 -4.083,-0.34312 -6.32943,-0.53028 -13.32529,-1.72727 -19.19588,-3.28443 -8.91946,-2.36587 -23.04629,-7.54317 -39.94917,-14.64087 -10.78485,-4.52867 -21.2516,-8.79144 -21.58643,-8.79144 -0.16441,0 -2.48789,0.96427 -5.16327,2.14282 -17.12039,7.54176 -36.52187,13.30938 -50.477176,15.00573 -3.543337,0.43072 -12.711525,0.35649 -16.305752,-0.132 C 64.724038,73.39997 57.010295,71.16267 51.776577,68.48969 47.890772,66.50512 41.273052,60.71817 39.561333,57.80791 39.130757,57.07585 38.494109,55.6516 38.146558,54.6429 37.799007,53.6342 37.445979,52.69725 37.362052,52.56078 37.270212,52.41145 35.650545,52.25877 33.293954,52.17731 24.689794,51.87991 17.572865,50.36943 12.354034,47.73309 6.4360086,44.74353 2.5928083,40.88717 1.2718931,36.61301 -1.2401634,28.48459 2.1893038,20.66814 10.778923,14.94456 18.940958,9.5059004 30.314376,5.7344204 44.067743,3.9058404 c 4.548934,-0.60481 16.596242,-0.8508 22.108398,-0.451432 19.23708,1.393762 36.042699,5.493872 59.210949,14.4458616 3.91384,1.51227 7.48354,2.85389 7.93267,2.98139 0.75565,0.21452 1.2606,0.039 6.7661,-2.35224 12.65866,-5.49809 23.23863,-9.4344896 36.98024,-13.7589496 10.39541,-3.271419 18.48449,-4.53630203 27.2925,-4.26771303 6.41962,0.195758 10.82356,1.08913603 15.16079,3.07550203 4.11973,1.886761 7.91771,5.295381 7.47218,6.7061406 -0.19363,0.61308 -0.34705,0.584 -1.60774,-0.3047996 -0.59449,-0.41912 -2.02727,-1.42973 -3.18395,-2.24579 -3.84518,-2.71282 -7.69296,-4.0077 -14.44414,-4.860824 -5.14033,-0.649562 -10.9242,-0.321035 -19.13588,1.086924 -11.93978,2.04719 -22.19782,5.31067 -41.41793,13.1766796 -10.2448,4.19278 -10.84909,4.45591 -10.84903,4.7242 3e-5,0.13905 5.22334,2.35448 11.60736,4.92318 6.38402,2.56869 15.53333,6.28803 20.3318,8.26519 4.79847,1.97717 8.86863,3.59485 9.0448,3.59485 0.17617,0 1.44721,-0.56724 2.82454,-1.26052 11.55906,-5.8183 24.45874,-11.42322 33.05504,-14.36244 17.74011,-6.06565 38.23347,-9.01305 50.40909,-7.24995 5.74463,0.83185 12.59006,3.00032 17.90525,5.67198 7.54167,3.79076 13.88638,9.45987 16.27616,14.543 1.67961,3.57253 2.18144,8.11631 1.29058,11.68517 -1.56087,6.253 -5.55266,10.62467 -13.07386,14.31802 -3.98022,1.95453 -7.7918,3.09761 -13.225,3.96616 -0.73097,0.11686 -0.90038,0.26232 -1.134,0.97369 -0.50881,1.5494 -3.09573,5.10066 -5.37716,7.38165 -5.472,5.47095 -11.95724,8.40846 -21.44373,9.71301 -2.54921,0.35057 -13.37213,0.64933 -15.86534,0.43798 z m 21.1149,-4.53682 c 4.99014,-0.82573 8.89901,-2.19047 11.77246,-4.11023 1.67036,-1.11598 4.81417,-4.25593 5.99303,-5.9857 0.76263,-1.11899 1.71624,-2.90524 1.71619,-3.21466 -2e-5,-0.10187 -3.64847,-0.18753 -8.10765,-0.19038 -10.4726,-0.007 -15.76712,-0.5535 -28.28928,-2.9216 -19.734,-3.73197 -38.04983,-9.215 -62.58567,-18.73565 -0.5831,-0.22627 -1.42933,0.14654 -9.39215,4.13779 -4.81322,2.41256 -8.72197,4.47489 -8.68613,4.58295 0.11589,0.34941 15.81585,6.70535 26.81944,10.85755 25.96736,9.79876 44.10138,14.84583 57.57753,16.02501 3.57647,0.31294 9.88933,0.0998 13.18223,-0.44508 z M 88.990132,72.52328 c 12.769708,-1.67497 33.809948,-7.74934 47.138648,-13.60908 2.24055,-0.98501 4.36342,-1.91001 4.71748,-2.05554 0.35405,-0.14553 0.60948,-0.36788 0.56761,-0.49411 -0.0419,-0.12624 -2.69385,-1.30153 -5.89331,-2.61176 -3.19943,-1.31022 -10.80424,-4.44831 -16.89957,-6.97352 -6.09533,-2.52523 -13.23261,-5.40195 -15.86063,-6.39275 l -4.77821,-1.80143 -4.670995,1.89536 c -18.841123,7.64519 -33.071992,10.95262 -50.225518,11.67304 -4.447956,0.1868 -4.316224,0.0577 -2.960141,2.90142 2.537619,5.32145 8.14471,10.23786 15.041433,13.18862 5.022506,2.14889 12.698651,3.96068 19.591059,4.62405 3.093522,0.29775 10.749254,0.11254 14.232144,-0.3443 l 0,0 z M 271.15722,61.68106 c 0.0922,-0.22569 0.15521,-1.51822 0.13997,-2.87231 -0.0217,-1.93776 -0.16157,-2.91131 -0.65652,-4.57224 -1.54589,-5.1877 -5.25891,-10.43338 -9.85648,-13.92502 -3.15324,-2.39472 -9.94932,-5.42668 -14.19057,-6.33087 -8.90573,-1.89862 -18.39732,0.015 -21.7117,4.37725 -1.91161,2.51601 -1.4311,4.76164 0.71346,3.3343 0.92276,-0.61416 2.02282,-0.6037 2.58862,0.0246 0.32993,0.36638 0.44445,0.84531 0.44445,1.8586 0,1.47482 -0.38402,2.22632 -1.60638,3.14348 -0.90344,0.67788 -3.11651,0.67788 -4.01994,0 -1.528,-1.14648 -2.07245,-2.75081 -1.70483,-5.0236 0.85764,-5.30238 6.31577,-9.17806 14.20507,-10.08667 10.25172,-1.18071 20.42455,2.12764 28.44992,9.2523 5.89483,5.23324 8.6792,10.81027 9.04837,18.12372 l 0.14501,2.8723 0.66601,0 c 1.11647,0 5.32992,-0.68325 7.40761,-1.2012 5.22886,-1.30352 9.31399,-3.62771 12.68114,-7.2148 2.68192,-2.85712 3.57065,-5.48917 3.37327,-9.99019 -0.14853,-3.38701 -0.6298,-4.95922 -2.30969,-7.54536 -6.04614,-9.30778 -14.40155,-14.36146 -28.42206,-17.19075 -5.70268,-1.15078 -7.18841,-1.29076 -13.64885,-1.28599 -7.42566,0.005 -11.39596,0.39335 -19.4817,1.90316 -8.18337,1.52804 -16.09484,4.01396 -28.81426,9.05397 -7.80056,3.09092 -24.46939,10.8063 -24.44222,11.31339 0.0154,0.28777 9.09726,3.85056 16.97617,6.65971 26.4654,9.43602 53.15531,15.25748 71.92631,15.6882 1.64627,0.0378 1.95698,-0.0164 2.09982,-0.36599 l 0,0 z M 158.45932,48.20862 c 4.78002,-2.35212 8.69095,-4.39062 8.69095,-4.53 0,-0.13937 -9.4499,-4.07063 -20.99977,-8.73614 l -20.99976,-8.48272 -8.68942,3.88966 c -9.68362,4.3347 -9.97265,4.47254 -9.97265,4.75607 0,0.11055 2.33606,1.07059 5.19124,2.13339 4.84468,1.80337 22.94614,9.05029 33.30554,13.33387 2.50229,1.03469 4.60211,1.88827 4.66627,1.89685 0.0642,0.009 4.02759,-1.90887 8.8076,-4.26098 l 0,0 z M 37.241949,48.34099 c 0.287259,-3.75197 1.479351,-6.38239 4.260677,-9.40141 3.676664,-3.99089 9.571671,-7.37114 15.782205,-9.04969 4.255602,-1.15017 6.835432,-1.42921 13.156851,-1.42307 10.761465,0.0105 18.912433,1.30376 29.747508,4.72 1.47571,0.46529 2.89531,0.83155 3.15466,0.81391 0.36314,-0.0247 11.29208,-4.51913 18.60186,-7.64987 1.57157,-0.6731 2.22675,-0.34914 -9.85751,-4.87417 C 88.942569,12.80964 74.366553,8.5830904 62.509013,7.1004004 51.650975,5.7426804 38.974077,6.4582604 29.145135,8.9837104 16.667885,12.18961 7.7770787,17.57246 3.8527788,24.2967 c -1.6127916,2.76351 -2.1850569,6.14804 -1.5541473,9.19166 0.4604524,2.2213 1.8368158,5.10824 3.2811079,6.88216 3.088732,3.79367 9.6790196,7.11526 17.2798046,8.70924 3.459144,0.72543 10.778645,1.4963 13.518321,1.42371 l 0.699941,-0.0185 0.164143,-2.14393 0,0 z m 13.931511,1.56004 c 10.036933,-1.15296 18.629185,-3.13405 28.717432,-6.62132 6.209289,-2.1464 14.479214,-5.41489 14.388987,-5.68691 -0.09246,-0.27876 -2.900287,-1.18357 -7.972856,-2.56921 -8.990805,-2.45596 -15.142077,-3.41465 -21.897889,-3.41285 -5.745601,0.002 -9.929593,0.91227 -14.529054,3.16257 -6.869179,3.36076 -10.263798,7.66179 -10.948528,13.87195 -0.08751,0.79363 -0.07833,1.57431 0.02039,1.73483 0.242273,0.39396 6.889971,0.13338 12.22152,-0.47906 l -4e-6,0 z" />
</svg>
